салат капрезе
4
Помидоры | 3 | шт.
Моцарелла | 100 | гр.
Базилик | 2 | веточки
Оливковое масло | 1 | ст. лож.
пюре
4
Картофель | 6 | шт.
Масло | 50 | гр.
Молоко | 50 | мл.
Соль | 0.5 | ч. л.
бефстроганов
5
телятина | 500 | г
Лук | 2 | головки
Сметана | 200 | гр
Мука | 1 | ст. лож.
Соль | 5 | гр
сырники
5
творог | 500 | гр
Яйца | 2 | шт
Мука | 3 | ст. л.
Сахар | 50 | гр.
Сода | 0.5 ч. | л.
макароны по-флотски
6
Макароны | 300 | г.
Говяжий фарш | 600 | г.
Паста томатная |  2 | ст. л.
Масло растительное |  2 | ст. л.
Лук  | 1 | шт.
Соль  | 1 | ч. л.
лимонад
3
Лимон | 1 | шт.
Сахар | 100 | гр.
Вода | 1 | л.
суп - пюре из тыквы
5
Тыква | 500 | гр.
Сливки | 200 | гр.
Лук | 1 | головка
Картофель | 2 | шт.
Соль | 0.5 | ч. л.